^C:\USERS\JFELT\DOCUMENTS\CRYENGINE PROJECTS\ENVY_BLANK\SOLUTIONS\WIN64\CMAKEFILES\651CC4DDC409AE7C1F4550767F55FBF7\GENERATE.STAMP.RULE
C:\USERS\JFELT\DOCUMENTS\CRYENGINE PROJECTS\ENVY_BLANK\SOLUTIONS\WIN64\CMAKEFILES\GENERATE.STAMP
C:\USERS\JFELT\DOCUMENTS\CRYENGINE PROJECTS\ENVY_BLANK\SOLUTIONS\WIN64\CRYENGINE\CMAKEFILES\GENERATE.STAMP
