#Command: "C:\Program Files (x86)\Microsoft Visual Studio\2019\Community\VC\Tools\MSVC\14.24.28314\bin\HostX64\x64\link.exe" /ERRORREPORT:PROMPT @C:\Users\jfelt\AppData\Local\Temp\tmp238bd40c5fc6420085c23188e922d0ef.rsp /nologo /incremental /fullbuild
^C:\USERS\JFELT\DOCUMENTS\CRYENGINE PROJECTS\ENVY_BLANK\SOLUTIONS\WIN64\GAME.DIR\PROFILE\CODE_UBER.OBJ|C:\USERS\JFELT\DOCUMENTS\CRYENGINE PROJECTS\ENVY_BLANK\SOLUTIONS\WIN64\GAME.DIR\PROFILE\COMPONENTS_UBER.OBJ|C:\USERS\JFELT\DOCUMENTS\CRYENGINE PROJECTS\ENVY_BLANK\SOLUTIONS\WIN64\GAME.DIR\PROFILE\GAME.AUTOGEN.RES|C:\USERS\JFELT\DOCUMENTS\CRYENGINE PROJECTS\ENVY_BLANK\SOLUTIONS\WIN64\GAME.DIR\PROFILE\ROOMACTOR.OBJ|C:\USERS\JFELT\DOCUMENTS\CRYENGINE PROJECTS\ENVY_BLANK\SOLUTIONS\WIN64\GAME.DIR\PROFILE\ROOMATMOSPHERE.OBJ|C:\USERS\JFELT\DOCUMENTS\CRYENGINE PROJECTS\ENVY_BLANK\SOLUTIONS\WIN64\GAME.DIR\PROFILE\ROOMCONTAINER.OBJ|C:\USERS\JFELT\DOCUMENTS\CRYENGINE PROJECTS\ENVY_BLANK\SOLUTIONS\WIN64\GAME.DIR\PROFILE\STDAFX.OBJ
C:\USERS\JFELT\DOCUMENTS\CRYENGINE PROJECTS\ENVY_BLANK\BIN\WIN_X64\GAME.PDB
